<svg version="1.1" id="Apron" xmlns="http://www.w3.org/2000/svg" viewBox="0 0 9922 13000" xml:space="preserve">
    <g>
      <g>
        <g>
<linearGradient class="color2" id="b8d8db76-850a-4e28-a358-4a6a7c2bccdf" >
<stop data-target="0.0" stop-color="#3C3B40"></stop>
</linearGradient>
          <path fill="url(#b8d8db76-850a-4e28-a358-4a6a7c2bccdf)" d="M3890.975 2962.139c77.512-20.76 586.895-186.861 686.55-214.542 23.532 278.218 318.604 522.545 603.52 525.984 359.034 4.331 462.303-274.067 466.455-456.78 92.731 52.599 458.157 262.999 552.286 323.902 86.934 131.183 116.28 714.235 107.967 1096.271-7.27 334.019-8.303 1087.969-24.914 1428.474 49.84 581.358 92.496 2488.45 74.754 2582.882-365.434 310.067-2079.048 362.673-2654.873-80.275 0-287.899 243.625-1998.761 354.354-2685.315 24.913-357.121 2.765-833.274-41.524-1187.628 170.249-377.885 218.694-890.026-124.575-1332.973z"/>
<linearGradient class="color1" id="5620ebfe-5130-4420-8f84-16f3db385929" >
<stop data-target="-0.09" stop-color="#806B56"></stop>
</linearGradient>
          <path fill="url(#5620ebfe-5130-4420-8f84-16f3db385929)" d="M5139.223 8440.847c-610.335 0-1125.097-110.866-1386.188-297.513 11.925-338.026 238.382-1940.582 353.233-2652.663l.358-2.222.157-2.237c23.195-332.491 7.453-795.387-40.087-1183.493 101.539-231.305 273.641-784.662-93.7-1313.06 65.229-20.151 162.901-51.24 264.345-83.533 112.695-35.869 228.271-72.653 299.511-94.473 58.325 271.3 348.553 508.189 643.579 511.759l8.863.051c306.263 0 466.078-202.419 500.864-424.907 136.414 78.257 386.448 223.156 473.034 277.887 67.985 123.988 103.849 640.588 94.754 1059.444-2.554 116.734-4.353 287.24-6.268 467.744-3.677 346.179-7.831 738.548-18.604 959.395l-.162 3.341.278 3.343c49.394 576.141 87.322 2344.346 76.788 2552.858-175.624 131.08-640.109 218.279-1170.755 218.279z"/>
<linearGradient class="color1" id="666379f0-3573-4020-bf00-fbb9cbf75d8a" >
<stop data-target="0.0" stop-color="#8C785F"></stop>
</linearGradient>
          <path fill="url(#666379f0-3573-4020-bf00-fbb9cbf75d8a)" d="M6233.19 5669.71l-.278-3.343.162-3.341c10.773-220.846 14.928-613.215 18.604-959.395 1.915-180.504 3.714-351.009 6.268-467.744 9.095-418.856-26.769-935.456-94.754-1059.444-86.586-54.73-336.62-199.63-473.034-277.887-34.786 222.488-194.602 424.907-500.864 424.907l-8.863-.051c-295.025-3.57-585.254-240.459-643.579-511.759-71.24 21.82-186.815 58.604-299.511 94.473-101.444 32.292-199.116 63.381-264.345 83.533 264.388 380.308 249.325 773.523 182.267 1050.315 82.979 494.731 146.811 1201.915 234.016 1542.429-157.797 809.742-269.92 1910.166-334.635 2708.218 279.125 96.119 658.503 150.225 1084.579 150.225 530.646 0 995.132-87.198 1170.756-218.278 10.534-208.512-27.395-1976.717-76.789-2552.858z"/>
<linearGradient class="color1" id="df7e589c-14ce-4368-be0e-b4a7b5916d63" >
<stop data-target="-0.09" stop-color="#806B56"></stop>
</linearGradient>
          <path fill="url(#df7e589c-14ce-4368-be0e-b4a7b5916d63)" d="M4525.412 4579.006c472.377 106.681 1129.671 76.725 1467.685 23.692-180.256 163.031-878.328 286.633-1467.685-23.692z"/>
<linearGradient class="color1" id="53a968eb-fd11-44d6-a2ba-cbbb4025f43d" >
<stop data-target="-0.09" stop-color="#806B56"></stop>
</linearGradient>
          <path fill="url(#53a968eb-fd11-44d6-a2ba-cbbb4025f43d)" d="M4742.341 4674.716c376.567 39.856 927.978 53.563 1194.254 19.928-213.821 138.252-867.437 170.645-1194.254-19.928z"/>
        </g>
        <g>
          <g>
<linearGradient class="color2" id="5370587f-124d-49dc-a8ba-700279b7958e" >
<stop data-target="0.0" stop-color="#3C3B40"></stop>
</linearGradient>
            <path fill="url(#5370587f-124d-49dc-a8ba-700279b7958e)" d="M4051.583 5280.026c9.937-12.57 27.628-16.822 27.628-16.822s-2.123 49.093-.763 59.937c103.645 124.599 329.97 257.409 660.521 346.388 257.744 69.575 256.97 670.63-66.125 656.827-433.27-14.082-656.576-225.327-712.781-372.734 72.189-211.601 92.77-530.68 91.52-673.596z"/>
<linearGradient class="color1" id="50469ca6-00e4-4682-8534-b98094a777f9" >
<stop data-target="-0.09" stop-color="#806B56"></stop>
</linearGradient>
            <path fill="url(#50469ca6-00e4-4682-8534-b98094a777f9)" d="M4612.755 6284.034c-319.979-33.519-526.344-178.445-595.429-312.664 42.861-147.523 82.409-393.771 90.108-560.298 123.988 121.154 337.109 225.723 618.736 301.54 122.248 35.473 164.948 227.185 136.274 385.409-19.29 106.533-81.966 201.417-249.689 186.013z"/>
<linearGradient class="color1" id="9e344379-0797-4568-8168-6257857895d8" >
<stop data-target="0.0" stop-color="#8C785F"></stop>
</linearGradient>
            <path fill="url(#9e344379-0797-4568-8168-6257857895d8)" d="M4862.444 6098.021c28.673-158.225-14.026-349.936-136.274-385.409-121.751-32.777-230.427-71.015-324.879-113.577-40.399 60.485-129.867 367.718-155.634 519.754 123.741 77.182 368.102 165.051 518.891 138.645 58.047-33.947 86.139-94.433 97.896-159.413z"/>
          </g>
          <g>
<linearGradient class="color2" id="3424424a-53d6-46f8-8f0e-0e1f7ca39667" >
<stop data-target="0.0" stop-color="#3C3B40"></stop>
</linearGradient>
            <path fill="url(#3424424a-53d6-46f8-8f0e-0e1f7ca39667)" d="M6304.142 5375.269c-5.484-12.127-16.278-25.134-16.278-25.134s-1.813 73.781-5.789 82.831c-43.353 90.53-110.476 149.451-327.29 194.065-307.073 54.349-389.427 618.912-80.312 684.379 377.611-10.888 448.336-132.038 455.861-281.321-17.56-185.48-34.721-485.646-26.192-654.82z"/>
<linearGradient class="color1" id="18fe580b-7025-4ec9-ad0a-de422029b31f" >
<stop data-target="0.0" stop-color="#8C785F"></stop>
</linearGradient>
            <path fill="url(#18fe580b-7025-4ec9-ad0a-de422029b31f)" d="M5879.142 6266.38c-142.332-34.336-151.667-195.885-151.121-245.106 1.72-151.902 90.556-324.406 236.172-350.179 149.205-30.705 234.213-63.043 290.062-114.229 3.373 165.608 16.502 355.871 27.596 473.724-6.265 113.392-44.74 224.159-402.709 235.79z"/>
          </g>
        </g>
      </g>
    </g>
</svg>
