<svg version="1.1" id="Fluo_tshirt" xmlns="http://www.w3.org/2000/svg" viewBox="0 0 9922 13000" xml:space="preserve">
    <g>
      <g>
        <g>
<linearGradient class="color1" id="9d8dc9da-8c67-4b6e-af6e-e52786287f28" >
<stop data-target="-0.31" stop-color="#93AB20"></stop>
</linearGradient>
          <path fill="url(#9d8dc9da-8c67-4b6e-af6e-e52786287f28)" d="M6023.68 3104.692c532.854 196.527 483.133 1093.065 507.991 1383.093-82.864 8.286-528.952 52.752-577.292 55.512-4.146-37.29-164.355-1341.309-168.5-1364.785 33.143-8.282 219.85-68.29 237.801-73.82z"/>
<linearGradient class="color1" id="8126fe7b-555b-427d-b1cc-3bc327be6481" >
<stop data-target="0.0" stop-color="#DBF74A"></stop>
</linearGradient>
          <path fill="url(#8126fe7b-555b-427d-b1cc-3bc327be6481)" d="M5997.948 4489.81c-26.024-212.896-131.034-1069.127-157.246-1275.464 40.731-12.39 102.053-31.785 165.026-51.818 6.11-1.942 11.592-3.682 16.269-5.168 412.948 168.068 438.418 825.211 452.2 1180.264 1.502 38.779 2.875 74.176 4.59 105.478-160.35 15.97-382.511 37.844-480.839 46.708z"/>
        </g>
        <g>
          <g>
<linearGradient class="color1" id="163c5256-fc1b-423d-a680-159525102019" >
<stop data-target="-0.31" stop-color="#93AB20"></stop>
</linearGradient>
            <path fill="url(#163c5256-fc1b-423d-a680-159525102019)" d="M3869.62 3010.708c336.984-120.153 770.642-250.667 845.221-279.667 33.146 403.28 820.368 426.755 820.368 62.146 62.15 41.436 487.453 295.275 571.709 350.522 51.858 407.696 214.934 703.124 209.305 1095.48-24.513 217.444-178.973 677.741-157.446 870.086 58.004 518.355 145.143 1019.377 171.267 1165.643-353.574 317.65-1695.994 284.503-2276.052-93.913 82.863-334.229 234.794-792.745 209.934-1066.203-99.443-389.465-493.746-1590.334-394.306-2104.094z"/>
<linearGradient class="color1" id="e5081af1-91ae-4d56-9261-3e4c94033cf2" >
<stop data-target="-0.15" stop-color="#B7D130"></stop>
</linearGradient>
            <path fill="url(#e5081af1-91ae-4d56-9261-3e4c94033cf2)" d="M5399.872 6441.441c-501.907 0-1001.794-110.557-1288.846-283.359 15.903-62.354 33.795-128.345 52.551-197.563 79.739-294.17 170.102-627.579 149.864-850.217l-.367-3.954-.979-3.849c-17.755-69.527-44.935-165.095-76.407-275.762-145.175-510.437-386.018-1357.218-322.024-1778.902 197.974-69.851 423.883-142.029 590.848-195.371 70.952-22.676 129.743-41.459 171.521-55.304 53.823 199.563 279.867 303.526 494.957 303.526 204.935 0 357.872-89.398 401.383-225.479 52.439 32.256 127.301 77.648 204.91 124.683 112.438 68.159 228.259 138.371 283.381 173.213 44.247 104.843 125.48 285.847 164.405 428.021 54.801 200.162 66.291 439.186 41.465 634.892-9.521 81.813-38.236 200.999-68.631 327.098-50.457 209.338-102.615 425.799-88.542 551.686 53.38 477.03 130.938 938.063 166.671 1140.381-152.074 117.017-475.653 186.26-876.16 186.26z"/>
<linearGradient class="color1" id="10a79e5c-00b9-4c16-8c6f-14ee1c27038a" >
<stop data-target="0.0" stop-color="#DBF74A"></stop>
</linearGradient>
            <path fill="url(#10a79e5c-00b9-4c16-8c6f-14ee1c27038a)" d="M6197.902 4563.116c30.395-126.1 59.109-245.285 68.631-327.098 24.826-195.707 13.336-434.73-41.465-634.892-38.925-142.174-120.158-323.177-164.405-428.021-55.122-34.842-170.942-105.054-283.381-173.213-77.609-47.034-152.471-92.426-204.91-124.683-43.511 136.081-196.448 225.479-401.383 225.479-215.09 0-441.134-103.963-494.957-303.526-41.778 13.844-100.569 32.628-171.521 55.304-154.599 49.394-359.718 114.933-546.414 179.826 55.676 434.057 317.318 1198.062 410.785 1275.949 232.018 193.359 602.162 209.929 950.2 193.359-226.484 165.728-535.876 220.976-751.323 198.875 71.815 430.899-77.338 1314.794-144.613 1595.598 276.743 91.393 626.2 145.368 976.725 145.368 400.507 0 724.086-69.244 876.159-186.258-35.732-202.319-113.291-663.351-166.671-1140.381-14.072-125.886 38.086-342.348 88.543-551.686z"/>
            <linearGradient class="color2" id="61b399de-c329-4849-9149-2474f8aa3671" gradientUnits="userSpaceOnUse" x1="3676.9517" y1="5761.1851" x2="6125.6299" y2="5761.1851">
<stop data-target="-0.19" offset="0" stop-color="#949FA1" />
<stop data-target="0.0" offset="1" stop-color="#B7C6C9" />
            </linearGradient>

            <path fill="url(#61b399de-c329-4849-9149-2474f8aa3671)" d="M6218.156 5899.265c-15.567-98.588-31.171-207.916-47.649-324.556-387.381 98.048-1398.344 81.479-1899.68-55.249-22.514 108.854-50.592 222.324-80.108 332.844 575.915 174.023 1614.501 207.167 2027.437 46.961z"/>
<linearGradient class="color2" id="7b53928d-0605-49ad-b78b-f30fbfc6bc8c" >
<stop data-target="-0.27" stop-color="#868F98"></stop>
</linearGradient>
            <path fill="url(#7b53928d-0605-49ad-b78b-f30fbfc6bc8c)" d="M4270.827 5519.461c-22.514 108.854-50.592 222.324-80.108 332.844 88.676 26.794 197.77 52.001 304.418 71.924 22.904-112.668 39.478-274.253 49.939-348.489-99.836-15.594-195.275-34.739-274.249-56.279z"/>
            <linearGradient class="color2" id="8b84d16f-c750-4307-9159-e629311f051d" gradientUnits="userSpaceOnUse" x1="2827.9214" y1="3564.2231" x2="6391.1274" y2="3895.6846">
<stop data-target="-0.19" offset="0" stop-color="#949FA1" />
<stop data-target="0.0" offset="1" stop-color="#B7C6C9" />
            </linearGradient>

            <path fill="url(#8b84d16f-c750-4307-9159-e629311f051d)" d="M6166.5 4241.977c-10.529-465.571-84.041-873.289-176.223-1115.941-58.651-35.971-270.234-163.338-296.925-179.548 108.179 429.964 182.582 881.831 183.551 1321.314-353.009 23.171-708.453 17.442-1062.006-8.413-57.805-515.061-132.747-1115.058-325.859-1404.051-89.869 28.727-209.228 68.354-315.931 103.582 131.875 163.56 230.406 795.109 264.826 1265.647a11689.675 11689.675 0 0 1-378.504-48.396c32.324 130.542 66.584 258.628 99.634 378.3 670.382 102.813 1362.879 146.37 2031.816 49.327 36.851-147.678 75.617-335.605 77.691-373.93-33.965 4.437-68.025 8.26-102.07 12.109z"/>
<linearGradient class="color2" id="c5e23626-1ac7-4beb-8888-a7d68b3aab82" >
<stop data-target="-0.27" stop-color="#868F98"></stop>
</linearGradient>
            <path fill="url(#c5e23626-1ac7-4beb-8888-a7d68b3aab82)" d="M4306.069 4209.128c-78.222-9.694-168.881-21.718-246.639-32.956 32.324 130.542 66.584 258.628 99.634 378.3 242.185 37.141 487.266 66.375 733.081 84.22-370.151-108.259-447.829-155.6-586.076-429.564z"/>
          </g>
          <g>
<linearGradient class="color1" id="e7b09dae-6de5-4748-977f-0d3c3d534427" >
<stop data-target="-0.31" stop-color="#93AB20"></stop>
</linearGradient>
            <path fill="url(#e7b09dae-6de5-4748-977f-0d3c3d534427)" d="M5158.238 3237.997c-227.649.012-408.208-107.981-502.166-210.398-68.829-75.015-102.61-156.266-95.15-228.777l24.727 2.543c-6.725 65.351 24.785 139.728 88.741 209.436 91.939 100.206 271.11 206.102 495.328 202.244 336.505-5.552 465.89-195.414 468.395-313.783l24.86.533c-2.7 127.619-138.897 332.266-492.839 338.111-3.982.064-7.964.091-11.896.091z"/>
          </g>
        </g>
        <g>
<linearGradient class="color1" id="aa1c8b5b-8892-4052-b221-5c8fa8851335" >
<stop data-target="-0.31" stop-color="#93AB20"></stop>
</linearGradient>
          <path fill="url(#aa1c8b5b-8892-4052-b221-5c8fa8851335)" d="M3869.62 3010.708c-163.662 71.214-252.046 352.874-406.737 684.338-66.283 138.11-149.15 287.258-198.868 370.127 138.102 44.199 613.202 265.171 646.348 298.317 77.343-154.684 287.27-591.112 325.936-712.643 11.041-281.745-178.851-618.035-366.679-640.139z"/>
<linearGradient class="color1" id="730b5bf2-e2ce-4f99-994c-dfb23ff57a93" >
<stop data-target="0.0" stop-color="#DBF74A"></stop>
</linearGradient>
          <path fill="url(#730b5bf2-e2ce-4f99-994c-dfb23ff57a93)" d="M3885.503 4294.436c-121.312-66.754-407.668-200.914-548.394-255.571 51.361-89.177 117.144-210.928 170.602-322.301 32.912-70.525 62.231-137.365 90.579-202.018 96.63-220.348 173.717-396.119 278.763-452.239 288.806 29.199 372.782 326.575 313.666 584.396-38.008 113.677-216.47 464.715-305.216 647.733z"/>
        </g>
      </g>
    </g>
</svg>
